\relax 
\providecommand\hyper@newdestlabel[2]{}
\providecommand\HyperFirstAtBeginDocument{\AtBeginDocument}
\HyperFirstAtBeginDocument{\ifx\hyper@anchor\@undefined
\global\let\oldcontentsline\contentsline
\gdef\contentsline#1#2#3#4{\oldcontentsline{#1}{#2}{#3}}
\global\let\oldnewlabel\newlabel
\gdef\newlabel#1#2{\newlabelxx{#1}#2}
\gdef\newlabelxx#1#2#3#4#5#6{\oldnewlabel{#1}{{#2}{#3}}}
\AtEndDocument{\ifx\hyper@anchor\@undefined
\let\contentsline\oldcontentsline
\let\newlabel\oldnewlabel
\fi}
\fi}
\global\let\hyper@last\relax 
\gdef\HyperFirstAtBeginDocument#1{#1}
\providecommand\HyField@AuxAddToFields[1]{}
\providecommand\HyField@AuxAddToCoFields[2]{}
\catcode `"\active 
\babel@aux{brazil}{}
\@writefile{nav}{\headcommand {\slideentry {0}{0}{1}{1/1}{}{0}}}
\@writefile{nav}{\headcommand {\beamer@framepages {1}{1}}}
\@writefile{nav}{\headcommand {\slideentry {0}{0}{2}{2/2}{}{0}}}
\@writefile{nav}{\headcommand {\beamer@framepages {2}{2}}}
\@writefile{toc}{\beamer@sectionintoc {1}{Introdu\IeC {\c c}\IeC {\~a}o}{3}{0}{1}}
\@writefile{nav}{\headcommand {\beamer@sectionpages {1}{2}}}
\@writefile{nav}{\headcommand {\beamer@subsectionpages {1}{2}}}
\@writefile{nav}{\headcommand {\sectionentry {1}{Introdu\IeC {\c c}\IeC {\~a}o}{3}{Introdu\IeC {\c c}\IeC {\~a}o}{0}}}
\@writefile{nav}{\headcommand {\slideentry {1}{0}{1}{3/3}{}{0}}}
\@writefile{nav}{\headcommand {\beamer@framepages {3}{3}}}
\@writefile{toc}{\beamer@subsectionintoc {1}{1}{Raios c\IeC {\'o}smicos de alt\IeC {\'\i }ssimas energias}{4}{0}{1}}
\@writefile{nav}{\headcommand {\beamer@subsectionpages {3}{3}}}
\@writefile{nav}{\headcommand {\beamer@subsectionentry {0}{1}{1}{4}{Raios c\IeC {\'o}smicos de alt\IeC {\'\i }ssimas energias}}}
\@writefile{nav}{\headcommand {\slideentry {1}{1}{1}{4/4}{Raios c\IeC {\'o}smicos de alt\IeC {\'\i }ssimas energias}{0}}}
\@writefile{nav}{\headcommand {\beamer@framepages {4}{4}}}
\@writefile{nav}{\headcommand {\slideentry {1}{1}{2}{5/5}{Raios c\IeC {\'o}smicos de alt\IeC {\'\i }ssimas energias}{0}}}
\@writefile{nav}{\headcommand {\beamer@framepages {5}{5}}}
\@writefile{toc}{\beamer@subsectionintoc {1}{2}{Chuveiros atmosf\IeC {\'e}ricos extensos}{6}{0}{1}}
\@writefile{nav}{\headcommand {\beamer@subsectionpages {4}{5}}}
\@writefile{nav}{\headcommand {\beamer@subsectionentry {0}{1}{2}{6}{Chuveiros atmosf\IeC {\'e}ricos extensos}}}
\@writefile{nav}{\headcommand {\slideentry {1}{2}{1}{6/9}{Chuveiros atmosf\IeC {\'e}ricos extensos}{0}}}
\@writefile{nav}{\headcommand {\beamer@framepages {6}{9}}}
\@writefile{nav}{\headcommand {\slideentry {1}{2}{2}{10/10}{Chuveiros atmosf\IeC {\'e}ricos extensos}{0}}}
\@writefile{nav}{\headcommand {\beamer@framepages {10}{10}}}
\@writefile{nav}{\headcommand {\slideentry {1}{2}{3}{11/11}{Chuveiros atmosf\IeC {\'e}ricos extensos}{0}}}
\@writefile{nav}{\headcommand {\beamer@framepages {11}{11}}}
\@writefile{nav}{\headcommand {\slideentry {1}{2}{4}{12/16}{Chuveiros atmosf\IeC {\'e}ricos extensos}{0}}}
\@writefile{nav}{\headcommand {\beamer@framepages {12}{16}}}
\@writefile{toc}{\beamer@sectionintoc {2}{Motiva\IeC {\c c}\IeC {\~a}o}{17}{0}{2}}
\@writefile{nav}{\headcommand {\beamer@sectionpages {3}{16}}}
\@writefile{nav}{\headcommand {\beamer@subsectionpages {6}{16}}}
\@writefile{nav}{\headcommand {\sectionentry {2}{Motiva\IeC {\c c}\IeC {\~a}o}{17}{Motiva\IeC {\c c}\IeC {\~a}o}{0}}}
\@writefile{nav}{\headcommand {\slideentry {2}{0}{1}{17/17}{}{0}}}
\@writefile{nav}{\headcommand {\beamer@framepages {17}{17}}}
\@writefile{toc}{\beamer@subsectionintoc {2}{1}{D\IeC {\'e}ficit de m\IeC {\'u}ons}{18}{0}{2}}
\@writefile{nav}{\headcommand {\beamer@subsectionpages {17}{17}}}
\@writefile{nav}{\headcommand {\beamer@subsectionentry {0}{2}{1}{18}{D\IeC {\'e}ficit de m\IeC {\'u}ons}}}
\@writefile{nav}{\headcommand {\slideentry {2}{1}{1}{18/18}{D\IeC {\'e}ficit de m\IeC {\'u}ons}{0}}}
\@writefile{nav}{\headcommand {\beamer@framepages {18}{18}}}
\@writefile{toc}{\beamer@subsectionintoc {2}{2}{Intera\IeC {\c c}\IeC {\~o}es hadr\IeC {\^o}nicas em chuveiros atmosf\IeC {\'e}ricos}{19}{0}{2}}
\@writefile{nav}{\headcommand {\beamer@subsectionpages {18}{18}}}
\@writefile{nav}{\headcommand {\beamer@subsectionentry {0}{2}{2}{19}{Intera\IeC {\c c}\IeC {\~o}es hadr\IeC {\^o}nicas em chuveiros atmosf\IeC {\'e}ricos}}}
\@writefile{nav}{\headcommand {\slideentry {2}{2}{1}{19/19}{Intera\IeC {\c c}\IeC {\~o}es hadr\IeC {\^o}nicas em chuveiros atmosf\IeC {\'e}ricos}{0}}}
\@writefile{nav}{\headcommand {\beamer@framepages {19}{19}}}
\@writefile{toc}{\beamer@subsectionintoc {2}{3}{Multiplicidade em aceleradores}{20}{0}{2}}
\@writefile{nav}{\headcommand {\beamer@subsectionpages {19}{19}}}
\@writefile{nav}{\headcommand {\beamer@subsectionentry {0}{2}{3}{20}{Multiplicidade em aceleradores}}}
\@writefile{nav}{\headcommand {\slideentry {2}{3}{1}{20/20}{Multiplicidade em aceleradores}{0}}}
\@writefile{nav}{\headcommand {\beamer@framepages {20}{20}}}
\@writefile{toc}{\beamer@sectionintoc {3}{An\IeC {\'a}lise dos observ\IeC {\'a}veis de chuveiros atmosf\IeC {\'e}ricos}{21}{0}{3}}
\@writefile{nav}{\headcommand {\beamer@sectionpages {17}{20}}}
\@writefile{nav}{\headcommand {\beamer@subsectionpages {20}{20}}}
\@writefile{nav}{\headcommand {\sectionentry {3}{An\IeC {\'a}lise dos observ\IeC {\'a}veis de chuveiros atmosf\IeC {\'e}ricos}{21}{An\IeC {\'a}lise dos observ\IeC {\'a}veis de chuveiros atmosf\IeC {\'e}ricos}{0}}}
\@writefile{nav}{\headcommand {\slideentry {3}{0}{1}{21/21}{}{0}}}
\@writefile{nav}{\headcommand {\beamer@framepages {21}{21}}}
\@writefile{nav}{\headcommand {\slideentry {3}{0}{2}{22/22}{}{0}}}
\@writefile{nav}{\headcommand {\beamer@framepages {22}{22}}}
\@writefile{toc}{\beamer@subsectionintoc {3}{1}{Densidade lateral de m\IeC {\'u}ons}{23}{0}{3}}
\@writefile{nav}{\headcommand {\beamer@subsectionpages {21}{22}}}
\@writefile{nav}{\headcommand {\beamer@subsectionentry {0}{3}{1}{23}{Densidade lateral de m\IeC {\'u}ons}}}
\@writefile{nav}{\headcommand {\slideentry {3}{1}{1}{23/23}{Densidade lateral de m\IeC {\'u}ons}{0}}}
\@writefile{nav}{\headcommand {\beamer@framepages {23}{23}}}
\@writefile{nav}{\headcommand {\slideentry {3}{1}{2}{24/24}{Densidade lateral de m\IeC {\'u}ons}{0}}}
\@writefile{nav}{\headcommand {\beamer@framepages {24}{24}}}
\@writefile{toc}{\beamer@subsectionintoc {3}{2}{Desenvolvimento longitudinal}{25}{0}{3}}
\@writefile{nav}{\headcommand {\beamer@subsectionpages {23}{24}}}
\@writefile{nav}{\headcommand {\beamer@subsectionentry {0}{3}{2}{25}{Desenvolvimento longitudinal}}}
\@writefile{nav}{\headcommand {\slideentry {3}{2}{1}{25/25}{Desenvolvimento longitudinal}{0}}}
\@writefile{nav}{\headcommand {\beamer@framepages {25}{25}}}
\@writefile{nav}{\headcommand {\slideentry {3}{2}{2}{26/26}{Desenvolvimento longitudinal}{0}}}
\@writefile{nav}{\headcommand {\beamer@framepages {26}{26}}}
\@writefile{toc}{\beamer@subsectionintoc {3}{3}{N\IeC {\'u}mero de m\IeC {\'u}ons no n\IeC {\'\i }vel de observa\IeC {\c c}\IeC {\~a}o}{27}{0}{3}}
\@writefile{nav}{\headcommand {\beamer@subsectionpages {25}{26}}}
\@writefile{nav}{\headcommand {\beamer@subsectionentry {0}{3}{3}{27}{N\IeC {\'u}mero de m\IeC {\'u}ons no n\IeC {\'\i }vel de observa\IeC {\c c}\IeC {\~a}o}}}
\@writefile{nav}{\headcommand {\slideentry {3}{3}{1}{27/27}{N\IeC {\'u}mero de m\IeC {\'u}ons no n\IeC {\'\i }vel de observa\IeC {\c c}\IeC {\~a}o}{0}}}
\@writefile{nav}{\headcommand {\beamer@framepages {27}{27}}}
\@writefile{toc}{\beamer@subsectionintoc {3}{4}{Produ\IeC {\c c}\IeC {\~a}o de m\IeC {\'u}ons em fun\IeC {\c c}\IeC {\~a}o da profundidade}{28}{0}{3}}
\@writefile{nav}{\headcommand {\beamer@subsectionpages {27}{27}}}
\@writefile{nav}{\headcommand {\beamer@subsectionentry {0}{3}{4}{28}{Produ\IeC {\c c}\IeC {\~a}o de m\IeC {\'u}ons em fun\IeC {\c c}\IeC {\~a}o da profundidade}}}
\@writefile{nav}{\headcommand {\slideentry {3}{4}{1}{28/28}{Produ\IeC {\c c}\IeC {\~a}o de m\IeC {\'u}ons em fun\IeC {\c c}\IeC {\~a}o da profundidade}{0}}}
\@writefile{nav}{\headcommand {\beamer@framepages {28}{28}}}
\@writefile{nav}{\headcommand {\slideentry {3}{4}{2}{29/29}{Produ\IeC {\c c}\IeC {\~a}o de m\IeC {\'u}ons em fun\IeC {\c c}\IeC {\~a}o da profundidade}{0}}}
\@writefile{nav}{\headcommand {\beamer@framepages {29}{29}}}
\@writefile{toc}{\beamer@subsectionintoc {3}{5}{Resultados}{30}{0}{3}}
\@writefile{nav}{\headcommand {\beamer@subsectionpages {28}{29}}}
\@writefile{nav}{\headcommand {\beamer@subsectionentry {0}{3}{5}{30}{Resultados}}}
\@writefile{nav}{\headcommand {\slideentry {3}{5}{1}{30/33}{Resultados}{0}}}
\@writefile{nav}{\headcommand {\beamer@framepages {30}{33}}}
\@writefile{toc}{\beamer@sectionintoc {4}{Distribui\IeC {\c c}\IeC {\~a}o de pseudorapidez e chuveiros atmosf\IeC {\'e}ricos}{34}{0}{4}}
\@writefile{nav}{\headcommand {\beamer@sectionpages {21}{33}}}
\@writefile{nav}{\headcommand {\beamer@subsectionpages {30}{33}}}
\@writefile{nav}{\headcommand {\sectionentry {4}{Distribui\IeC {\c c}\IeC {\~a}o de pseudorapidez e chuveiros atmosf\IeC {\'e}ricos}{34}{Distribui\IeC {\c c}\IeC {\~a}o de pseudorapidez e chuveiros atmosf\IeC {\'e}ricos}{0}}}
\@writefile{nav}{\headcommand {\slideentry {4}{0}{1}{34/34}{}{0}}}
\@writefile{nav}{\headcommand {\beamer@framepages {34}{34}}}
\@writefile{nav}{\headcommand {\slideentry {4}{0}{2}{35/35}{}{0}}}
\@writefile{nav}{\headcommand {\beamer@framepages {35}{35}}}
\@writefile{toc}{\beamer@subsectionintoc {4}{1}{Modelando a distribui\IeC {\c c}\IeC {\~a}o $dN/d\eta $ para primeira intera\IeC {\c c}\IeC {\~a}o}{36}{0}{4}}
\@writefile{nav}{\headcommand {\beamer@subsectionpages {34}{35}}}
\@writefile{nav}{\headcommand {\beamer@subsectionentry {0}{4}{1}{36}{Modelando $dN/d\eta $}}}
\@writefile{nav}{\headcommand {\slideentry {4}{1}{1}{36/37}{Modelando $dN/d\eta $}{0}}}
\@writefile{nav}{\headcommand {\beamer@framepages {36}{37}}}
\@writefile{nav}{\headcommand {\slideentry {4}{1}{2}{38/39}{Modelando $dN/d\eta $}{0}}}
\@writefile{nav}{\headcommand {\beamer@framepages {38}{39}}}
\@writefile{toc}{\beamer@subsectionintoc {4}{2}{Resultado sobre observ\IeC {\'a}veis de chuveiros atmosf\IeC {\'e}ricos}{40}{0}{4}}
\@writefile{nav}{\headcommand {\beamer@subsectionpages {36}{39}}}
\@writefile{nav}{\headcommand {\beamer@subsectionentry {0}{4}{2}{40}{An\IeC {\'a}lise}}}
\@writefile{nav}{\headcommand {\slideentry {4}{2}{1}{40/40}{An\IeC {\'a}lise}{0}}}
\@writefile{nav}{\headcommand {\beamer@framepages {40}{40}}}
\@writefile{nav}{\headcommand {\slideentry {4}{2}{2}{41/41}{An\IeC {\'a}lise}{0}}}
\@writefile{nav}{\headcommand {\beamer@framepages {41}{41}}}
\@writefile{nav}{\headcommand {\slideentry {4}{2}{3}{42/42}{An\IeC {\'a}lise}{0}}}
\@writefile{nav}{\headcommand {\beamer@framepages {42}{42}}}
\@writefile{nav}{\headcommand {\slideentry {4}{2}{4}{43/43}{An\IeC {\'a}lise}{0}}}
\@writefile{nav}{\headcommand {\beamer@framepages {43}{43}}}
\@writefile{toc}{\beamer@subsectionintoc {4}{3}{Resultado}{44}{0}{4}}
\@writefile{nav}{\headcommand {\beamer@subsectionpages {40}{43}}}
\@writefile{nav}{\headcommand {\beamer@subsectionentry {0}{4}{3}{44}{Resultado}}}
\@writefile{nav}{\headcommand {\slideentry {4}{3}{1}{44/48}{Resultado}{0}}}
\@writefile{nav}{\headcommand {\beamer@framepages {44}{48}}}
\@writefile{toc}{\beamer@sectionintoc {5}{Inclus\IeC {\~a}o de efeitos do detector}{49}{0}{5}}
\@writefile{nav}{\headcommand {\beamer@sectionpages {34}{48}}}
\@writefile{nav}{\headcommand {\beamer@subsectionpages {44}{48}}}
\@writefile{nav}{\headcommand {\sectionentry {5}{Inclus\IeC {\~a}o de efeitos do detector}{49}{Inclus\IeC {\~a}o de efeitos do detector}{0}}}
\@writefile{nav}{\headcommand {\slideentry {5}{0}{1}{49/49}{}{0}}}
\@writefile{nav}{\headcommand {\beamer@framepages {49}{49}}}
\@writefile{toc}{\beamer@subsectionintoc {5}{1}{Observat\IeC {\'o}rio Pierre Auger}{50}{0}{5}}
\@writefile{nav}{\headcommand {\beamer@subsectionpages {49}{49}}}
\@writefile{nav}{\headcommand {\beamer@subsectionentry {0}{5}{1}{50}{Observat\IeC {\'o}rio Pierre Auger}}}
\@writefile{nav}{\headcommand {\slideentry {5}{1}{1}{50/50}{Observat\IeC {\'o}rio Pierre Auger}{0}}}
\@writefile{nav}{\headcommand {\beamer@framepages {50}{50}}}
\@writefile{nav}{\headcommand {\slideentry {5}{1}{2}{51/51}{Observat\IeC {\'o}rio Pierre Auger}{0}}}
\@writefile{nav}{\headcommand {\beamer@framepages {51}{51}}}
\@writefile{nav}{\headcommand {\slideentry {5}{1}{3}{52/53}{Observat\IeC {\'o}rio Pierre Auger}{0}}}
\@writefile{nav}{\headcommand {\beamer@framepages {52}{53}}}
\@writefile{toc}{\beamer@subsectionintoc {5}{2}{Simula\IeC {\c c}\IeC {\~a}o do arranjo de detectores}{54}{0}{5}}
\@writefile{nav}{\headcommand {\beamer@subsectionpages {50}{53}}}
\@writefile{nav}{\headcommand {\beamer@subsectionentry {0}{5}{2}{54}{Simula\IeC {\c c}\IeC {\~a}o do arranjo de detectores}}}
\@writefile{nav}{\headcommand {\slideentry {5}{2}{1}{54/54}{Simula\IeC {\c c}\IeC {\~a}o do arranjo de detectores}{0}}}
\@writefile{nav}{\headcommand {\beamer@framepages {54}{54}}}
\@writefile{nav}{\headcommand {\slideentry {5}{2}{2}{55/55}{Simula\IeC {\c c}\IeC {\~a}o do arranjo de detectores}{0}}}
\@writefile{nav}{\headcommand {\beamer@framepages {55}{55}}}
\@writefile{toc}{\beamer@subsectionintoc {5}{3}{Processo de reconstru\IeC {\c c}\IeC {\~a}o}{56}{0}{5}}
\@writefile{nav}{\headcommand {\beamer@subsectionpages {54}{55}}}
\@writefile{nav}{\headcommand {\beamer@subsectionentry {0}{5}{3}{56}{Processo de reconstru\IeC {\c c}\IeC {\~a}o}}}
\@writefile{snm}{\beamer@slide {eqn:trigger_time_plane}{56}}
\newlabel{eqn:trigger_time_plane}{{8}{56}{Processo de reconstrução}{Doc-Start}{}}
\@writefile{snm}{\beamer@slide {eqn:curvature_term}{56}}
\newlabel{eqn:curvature_term}{{9}{56}{Processo de reconstrução}{Doc-Start}{}}
\@writefile{snm}{\beamer@slide {eqn:chi_square_trigger_time}{56}}
\newlabel{eqn:chi_square_trigger_time}{{10}{56}{Processo de reconstrução}{Doc-Start}{}}
\@writefile{nav}{\headcommand {\slideentry {5}{3}{1}{56/56}{Processo de reconstru\IeC {\c c}\IeC {\~a}o}{0}}}
\@writefile{nav}{\headcommand {\beamer@framepages {56}{56}}}
\@writefile{snm}{\beamer@slide {eqn:muon_density_para}{57}}
\newlabel{eqn:muon_density_para}{{11}{57}{Processo de reconstrução}{Doc-Start}{}}
\@writefile{snm}{\beamer@slide {eqn:mll_estimation}{57}}
\newlabel{eqn:mll_estimation}{{12}{57}{Processo de reconstrução}{Doc-Start}{}}
\@writefile{snm}{\beamer@slide {eqn:log-max-likelihood}{57}}
\newlabel{eqn:log-max-likelihood}{{40}{57}{Processo de reconstrução}{Doc-Start}{}}
\@writefile{nav}{\headcommand {\slideentry {5}{3}{2}{57/57}{Processo de reconstru\IeC {\c c}\IeC {\~a}o}{0}}}
\@writefile{nav}{\headcommand {\beamer@framepages {57}{57}}}
\@writefile{toc}{\beamer@subsectionintoc {5}{4}{Cen\IeC {\'a}rio de teste}{58}{0}{5}}
\@writefile{nav}{\headcommand {\beamer@subsectionpages {56}{57}}}
\@writefile{nav}{\headcommand {\beamer@subsectionentry {0}{5}{4}{58}{Cen\IeC {\'a}rio de teste}}}
\@writefile{nav}{\headcommand {\slideentry {5}{4}{1}{58/58}{Cen\IeC {\'a}rio de teste}{0}}}
\@writefile{nav}{\headcommand {\beamer@framepages {58}{58}}}
\@writefile{nav}{\headcommand {\slideentry {5}{4}{2}{59/61}{Cen\IeC {\'a}rio de teste}{0}}}
\@writefile{nav}{\headcommand {\beamer@framepages {59}{61}}}
\@writefile{nav}{\headcommand {\slideentry {5}{4}{3}{62/62}{Cen\IeC {\'a}rio de teste}{0}}}
\@writefile{nav}{\headcommand {\beamer@framepages {62}{62}}}
\@writefile{nav}{\headcommand {\slideentry {5}{4}{4}{63/63}{Cen\IeC {\'a}rio de teste}{0}}}
\@writefile{nav}{\headcommand {\beamer@framepages {63}{63}}}
\@writefile{nav}{\headcommand {\slideentry {5}{4}{5}{64/64}{Cen\IeC {\'a}rio de teste}{0}}}
\@writefile{nav}{\headcommand {\beamer@framepages {64}{64}}}
\@writefile{toc}{\beamer@sectionintoc {6}{Reconstru\IeC {\c c}\IeC {\~a}o de simula\IeC {\c c}\IeC {\~o}es de chuveiros atmosf\IeC {\'e}ricos}{65}{0}{6}}
\@writefile{nav}{\headcommand {\beamer@sectionpages {49}{64}}}
\@writefile{nav}{\headcommand {\beamer@subsectionpages {58}{64}}}
\@writefile{nav}{\headcommand {\sectionentry {6}{Reconstru\IeC {\c c}\IeC {\~a}o de simula\IeC {\c c}\IeC {\~o}es de chuveiros atmosf\IeC {\'e}ricos}{65}{Reconstru\IeC {\c c}\IeC {\~a}o de simula\IeC {\c c}\IeC {\~o}es de chuveiros atmosf\IeC {\'e}ricos}{0}}}
\@writefile{nav}{\headcommand {\slideentry {6}{0}{1}{65/65}{}{0}}}
\@writefile{nav}{\headcommand {\beamer@framepages {65}{65}}}
\@writefile{nav}{\headcommand {\slideentry {6}{0}{2}{66/66}{}{0}}}
\@writefile{nav}{\headcommand {\beamer@framepages {66}{66}}}
\@writefile{nav}{\headcommand {\slideentry {6}{0}{3}{67/67}{}{0}}}
\@writefile{nav}{\headcommand {\beamer@framepages {67}{67}}}
\@writefile{nav}{\headcommand {\slideentry {6}{0}{4}{68/68}{}{0}}}
\@writefile{nav}{\headcommand {\beamer@framepages {68}{68}}}
\@writefile{toc}{\beamer@subsectionintoc {6}{1}{Resultado}{69}{0}{6}}
\@writefile{nav}{\headcommand {\beamer@subsectionpages {65}{68}}}
\@writefile{nav}{\headcommand {\beamer@subsectionentry {0}{6}{1}{69}{Resultado}}}
\@writefile{nav}{\headcommand {\slideentry {6}{1}{1}{69/70}{Resultado}{0}}}
\@writefile{nav}{\headcommand {\beamer@framepages {69}{70}}}
\@writefile{toc}{\beamer@sectionintoc {7}{Conclus\IeC {\~o}es}{71}{0}{7}}
\@writefile{nav}{\headcommand {\beamer@sectionpages {65}{70}}}
\@writefile{nav}{\headcommand {\beamer@subsectionpages {69}{70}}}
\@writefile{nav}{\headcommand {\sectionentry {7}{Conclus\IeC {\~o}es}{71}{Conclus\IeC {\~o}es}{0}}}
\@writefile{nav}{\headcommand {\slideentry {7}{0}{1}{71/71}{}{0}}}
\@writefile{nav}{\headcommand {\beamer@framepages {71}{71}}}
\@writefile{nav}{\headcommand {\slideentry {7}{0}{2}{72/76}{}{0}}}
\@writefile{nav}{\headcommand {\beamer@framepages {72}{76}}}
\@writefile{nav}{\headcommand {\slideentry {7}{0}{3}{77/77}{}{0}}}
\@writefile{nav}{\headcommand {\beamer@framepages {77}{77}}}
\@writefile{nav}{\headcommand {\beamer@sectionpages {71}{77}}}
\@writefile{nav}{\headcommand {\beamer@subsectionpages {71}{77}}}
\@writefile{nav}{\headcommand {\sectionentry {8}{Recuperando a distribui\IeC {\c c}\IeC {\~a}o lateral de chuveiros}{78}{Recuperando a distribui\IeC {\c c}\IeC {\~a}o lateral de chuveiros}{0}}}
\@writefile{nav}{\headcommand {\slideentry {8}{0}{1}{78/78}{}{0}}}
\@writefile{nav}{\headcommand {\beamer@framepages {78}{78}}}
\@writefile{nav}{\headcommand {\slideentry {8}{0}{2}{79/79}{}{0}}}
\@writefile{nav}{\headcommand {\beamer@framepages {79}{79}}}
\@writefile{nav}{\headcommand {\slideentry {8}{0}{3}{80/84}{}{0}}}
\@writefile{nav}{\headcommand {\beamer@framepages {80}{84}}}
\@writefile{nav}{\headcommand {\slideentry {8}{0}{4}{85/85}{}{0}}}
\@writefile{nav}{\headcommand {\beamer@framepages {85}{85}}}
\@writefile{nav}{\headcommand {\beamer@sectionpages {78}{85}}}
\@writefile{nav}{\headcommand {\beamer@subsectionpages {78}{85}}}
\@writefile{nav}{\headcommand {\sectionentry {9}{Import\IeC {\^a}ncia da distribui\IeC {\c c}\IeC {\~a}o $dN/d\eta $ em chuveiros atmosf\IeC {\'e}ricos}{86}{Import\IeC {\^a}ncia da distribui\IeC {\c c}\IeC {\~a}o $dN/d\eta $ em chuveiros atmosf\IeC {\'e}ricos}{0}}}
\@writefile{nav}{\headcommand {\slideentry {9}{0}{1}{86/86}{}{0}}}
\@writefile{nav}{\headcommand {\beamer@framepages {86}{86}}}
\@writefile{nav}{\headcommand {\slideentry {9}{0}{2}{87/88}{}{0}}}
\@writefile{nav}{\headcommand {\beamer@framepages {87}{88}}}
\@writefile{nav}{\headcommand {\slideentry {9}{0}{3}{89/90}{}{0}}}
\@writefile{nav}{\headcommand {\beamer@framepages {89}{90}}}
\@writefile{nav}{\headcommand {\beamer@sectionpages {86}{90}}}
\@writefile{nav}{\headcommand {\beamer@subsectionpages {86}{90}}}
\@writefile{nav}{\headcommand {\sectionentry {10}{Densidade de part\IeC {\'\i }culas em fun\IeC {\c c}\IeC {\~a}o de de $\eta $}{91}{Densidade de part\IeC {\'\i }culas em fun\IeC {\c c}\IeC {\~a}o de de $\eta $}{0}}}
\@writefile{nav}{\headcommand {\slideentry {10}{0}{1}{91/95}{}{0}}}
\@writefile{nav}{\headcommand {\beamer@framepages {91}{95}}}
\@writefile{nav}{\headcommand {\beamer@partpages {1}{95}}}
\@writefile{nav}{\headcommand {\beamer@subsectionpages {91}{95}}}
\@writefile{nav}{\headcommand {\beamer@sectionpages {91}{95}}}
\@writefile{nav}{\headcommand {\beamer@documentpages {95}}}
\@writefile{nav}{\headcommand {\gdef \inserttotalframenumber {61}}}
