%!PS-Adobe-2.0 EPSF-2.0
%%BoundingBox:  0 0 567 384
%%Title: /home/hendrik/lateral_example.eps: Canvas_1
%%Creator: ROOT Version 6.06/08
%%CreationDate: Thu Nov 24 14:16:12 2016
%%DocumentNeededResources: ProcSet (FontSetInit)
%%EndComments
%%BeginProlog
80 dict begin
/s {stroke} def /l {lineto} def /m {moveto} def /t {translate} def
/r {rotate} def /rl {roll}  def /R {repeat} def
/d {rlineto} def /rm {rmoveto} def /gr {grestore} def /f {eofill} def
/c {setrgbcolor} def /black {0 setgray} def /sd {setdash} def
/cl {closepath} def /sf {scalefont setfont} def /lw {setlinewidth} def
/box {m dup 0 exch d exch 0 d 0 exch neg d cl} def
/NC{systemdict begin initclip end}def/C{NC box clip newpath}def
/bl {box s} def /bf {gsave box gsave f grestore 1 lw [] 0 sd s grestore} def /Y { 0 exch d} def /X { 0 d} def 
/K {{pop pop 0 moveto} exch kshow} bind def
/ita {/ang 15 def gsave [1 0 ang dup sin exch cos div 1 0 0] concat} def 
/mp {newpath /y exch def /x exch def} def
/side {[w .77 mul w .23 mul] .385 w mul sd w 0 l currentpoint t -144 r} def
/mr {mp x y w2 0 360 arc} def /m24 {mr s} def /m20 {mr f} def
/mb {mp x y w2 add m w2 neg 0 d 0 w neg d w 0 d 0 w d cl} def
/mt {mp x y w2 add m w2 neg w neg d w 0 d cl} def
/m21 {mb f} def /m25 {mb s} def /m22 {mt f} def /m26{mt s} def
/m23 {mp x y w2 sub m w2 w d w neg 0 d cl f} def
/m27 {mp x y w2 add m w3 neg w2 neg d w3 w2 neg d w3 w2 d cl s} def
/m28 {mp x w2 sub y w2 sub w3 add m w3 0 d  0 w3 neg d w3 0 d 0 w3 d w3 0 d  0 w3 d w3 neg 0 d 0 w3 d w3 neg 0 d 0 w3 neg d w3 neg 0 d cl s } def
/m29 {mp gsave x w2 sub y w2 add w3 sub m currentpoint t 4 {side} repeat cl fill gr} def
/m30 {mp gsave x w2 sub y w2 add w3 sub m currentpoint t 4 {side} repeat cl s gr} def
/m31 {mp x y w2 sub m 0 w d x w2 sub y m w 0 d x w2 sub y w2 add m w w neg d x w2 sub y w2 sub m w w d s} def
/m32 {mp x y w2 sub m w2 w d w neg 0 d cl s} def
/m33 {mp x y w2 add m w3 neg w2 neg d w3 w2 neg d w3 w2 d cl f} def
/m34 {mp x w2 sub y w2 sub w3 add m w3 0 d  0 w3 neg d w3 0 d 0 w3 d w3 0 d  0 w3 d w3 neg 0 d 0 w3 d w3 neg 0 d 0 w3 neg d w3 neg 0 d cl f } def
/m2 {mp x y w2 sub m 0 w d x w2 sub y m w 0 d s} def
/m5 {mp x w2 sub y w2 sub m w w d x w2 sub y w2 add m w w neg d s} def
%%IncludeResource: ProcSet (FontSetInit)
%%IncludeResource: font Times-Roman
%%IncludeResource: font Times-Italic
%%IncludeResource: font Times-Bold
%%IncludeResource: font Times-BoldItalic
%%IncludeResource: font Helvetica
%%IncludeResource: font Helvetica-Oblique
%%IncludeResource: font Helvetica-Bold
%%IncludeResource: font Helvetica-BoldOblique
%%IncludeResource: font Courier
%%IncludeResource: font Courier-Oblique
%%IncludeResource: font Courier-Bold
%%IncludeResource: font Courier-BoldOblique
%%IncludeResource: font Symbol
%%IncludeResource: font ZapfDingbats
/reEncode {exch findfont dup length dict begin {1 index /FID eq  {pop pop} {def} ifelse } forall /Encoding exch def currentdict end dup /FontName get exch definefont pop } def [/Times-Bold /Times-Italic /Times-BoldItalic /Helvetica /Helvetica-Oblique
 /Helvetica-Bold /Helvetica-BoldOblique /Courier /Courier-Oblique /Courier-Bold /Courier-BoldOblique /Times-Roman /AvantGarde-Book /AvantGarde-BookOblique /AvantGarde-Demi /AvantGarde-DemiOblique /Bookman-Demi /Bookman-DemiItalic /Bookman-Light
 /Bookman-LightItalic /Helvetica-Narrow /Helvetica-Narrow-Bold /Helvetica-Narrow-BoldOblique /Helvetica-Narrow-Oblique /NewCenturySchlbk-Roman /NewCenturySchlbk-Bold /NewCenturySchlbk-BoldItalic /NewCenturySchlbk-Italic /Palatino-Bold
 /Palatino-BoldItalic /Palatino-Italic /Palatino-Roman ] {ISOLatin1Encoding reEncode } forall
%%EndProlog
%%BeginSetup
%%EndSetup
newpath  gsave  .25 .25 scale  gsave  0 0 t black[  ] 0 sd 3 lw 1 1 1 c 2268 1537 0 0 bf black 1 1 1 c 1816 1228 283 221 bf black 1816 1228 283 221 bl 1 1 1 c 1816 1228 283 221 bf black 1816 1228 283 221 bl 0 0 0.6 c 6 lw 1 1 1 c black 0 0 0.6 c 283
 1381 m 36 X -59 Y 18 X -48 Y 18 X -40 Y 18 X -34 Y 19 X -30 Y 18 X -27 Y 18 X -25 Y 18 X -23 Y 18 X -21 Y 18 X -21 Y 19 X -19 Y 18 X -19 Y 18 X -17 Y 18 X -17 Y 18 X -17 Y 18 X -16 Y 19 X -15 Y 18 X -14 Y 18 X -15 Y 18 X -13 Y 18 X -15 Y 18 X -12 Y
 19 X -13 Y 18 X -13 Y 18 X -12 Y 18 X -11 Y 18 X -13 Y 18 X -11 Y 18 X -12 Y 19 X -10 Y 18 X -11 Y 18 X -11 Y 18 X -11 Y 18 X -10 Y 18 X -11 Y 19 X -8 Y 18 X -10 Y 18 X -11 Y 18 X -9 Y 18 X -8 Y 18 X -10 Y 19 X -8 Y 18 X -9 Y 18 X -10 Y 18 X -7 Y 18
 X -7 Y 18 X -8 Y 19 X -10 Y 18 X -8 Y 18 X -10 Y 18 X -7 Y 18 X -8 Y 18 X -6 Y 19 X -7 Y 18 X -9 Y 18 X -8 Y 18 X -6 Y 18 X -11 Y 18 X -4 Y 18 X -6 Y 19 X -9 Y 18 X -5 Y 18 X -8 Y 18 X -6 Y 18 X -7 Y 18 X -9 Y 19 X 1 Y 18 X -10 Y 18 X -6 Y 18 X -5 Y
 18 X -5 Y 18 X -5 Y 19 X -7 Y 18 X -11 Y 18 X -3 Y 18 X -9 Y 18 X -10 Y 18 X 3 Y 19 X -9 Y 18 X -1 Y 18 X -7 Y 18 X -8 Y 18 X -4 Y 18 X -9 Y 19 X -6 Y 18 X -3 Y 18 X -6 Y 18 X -3 Y 18 X -9 Y 18 X -11 Y 18 X -12 Y 19 X 20 Y 18 X -14 Y 18 X -12 Y 18 X
 2 Y 18 X -6 Y 18 X -5 Y 19 X -2 Y 18 X s black 3 lw 283 221 m 1816 X s
 gsave  2268 1537 0 0 C 1968.82 87.7197 t 0 r /Helvetica-Bold findfont 71.4753 sf 0 0 m ( \(m\)) show NC gr 
 gsave  2268 1537 0 0 C 1871.35 58.4798 t 0 r /Helvetica-Bold findfont 48.7332 sf 0 0 m (eixo) show NC gr 
 gsave  2268 1537 0 0 C 1829.12 87.7197 t 0 r /Helvetica-Bold findfont 71.4753 sf 0 0 m (d) show NC gr  283 258 m -37 Y s 343 239 m -18 Y s 404 239 m -18 Y s 464 239 m -18 Y s 525 239 m -18 Y s 585 258 m -37 Y s 646 239 m -18 Y s 706 239 m -18 Y s
 767 239 m -18 Y s 827 239 m -18 Y s 888 258 m -37 Y s 949 239 m -18 Y s 1009 239 m -18 Y s 1070 239 m -18 Y s 1130 239 m -18 Y s 1191 258 m -37 Y s 1251 239 m -18 Y s 1312 239 m -18 Y s 1372 239 m -18 Y s 1433 239 m -18 Y s 1493 258 m -37 Y s 1554
 239 m -18 Y s 1614 239 m -18 Y s 1675 239 m -18 Y s 1736 239 m -18 Y s 1796 258 m -37 Y s 1857 239 m -18 Y s 1917 239 m -18 Y s 1978 239 m -18 Y s 2038 239 m -18 Y s 2099 258 m -37 Y s
 gsave  2268 1537 0 0 C 266.408 165.693 t 0 r /Helvetica-Bold findfont 58.4798 sf 0 0 m (0) show NC gr 
 gsave  2268 1537 0 0 C 536.065 165.693 t 0 r /Helvetica-Bold findfont 58.4798 sf 0 0 m (500) show NC gr 
 gsave  2268 1537 0 0 C 821.966 165.693 t 0 r /Helvetica-Bold findfont 58.4798 sf 0 0 m (1000) show NC gr 
 gsave  2268 1537 0 0 C 1124.11 165.693 t 0 r /Helvetica-Bold findfont 58.4798 sf 0 0 m (1500) show NC gr 
 gsave  2268 1537 0 0 C 1426.26 165.693 t 0 r /Helvetica-Bold findfont 58.4798 sf 0 0 m (2000) show NC gr 
 gsave  2268 1537 0 0 C 1728.4 165.693 t 0 r /Helvetica-Bold findfont 58.4798 sf 0 0 m (2500) show NC gr 
 gsave  2268 1537 0 0 C 2033.8 165.693 t 0 r /Helvetica-Bold findfont 58.4798 sf 0 0 m (3000) show NC gr  283 221 m 1228 Y s
 gsave  2268 1537 0 0 C 123.457 1426.26 t 90 r /Helvetica-Bold findfont 71.4753 sf 0 0 m (\)) show NC gr 
 gsave  2268 1537 0 0 C 90.9686 1384.02 t 90 r /Helvetica-Bold findfont 48.7332 sf 0 0 m (\2552) show NC gr 
 gsave  2268 1537 0 0 C 123.457 1280.06 t 90 r /Helvetica-Bold findfont 71.4753 sf 0 0 m ( \(m) show NC gr 
 gsave  2268 1537 0 0 C 149.448 1182.59 t 90 r /Helvetica-Bold findfont 48.7332 sf 0 0 m (eixo) show NC gr 
 gsave  2268 1537 0 0 C 123.457 1026.65 t 90 r /Helvetica-Bold findfont 71.4753 sf 0 0 m (dN/d) show NC gr  337 225 m -54 X s
 gsave  2268 1537 0 0 C 264.057 201.301 t 0 r  -63 0 t /Helvetica-Bold findfont 58.4798 sf 0 0 m (10) show NC gr  310 298 m -27 X s 310 341 m -27 X s 310 371 m -27 X s 310 395 m -27 X s 310 414 m -27 X s 310 431 m -27 X s 310 445 m -27 X s 310 457 m
 -27 X s 337 468 m -54 X s
 gsave  2268 1537 0 0 C 240.417 471.087 t 0 r /Helvetica-Bold findfont 38.9865 sf 0 0 m (2) show NC gr 
 gsave  2268 1537 0 0 C 175.439 441.847 t 0 r /Helvetica-Bold findfont 58.4798 sf 0 0 m (10) show NC gr  310 542 m -27 X s 310 585 m -27 X s 310 615 m -27 X s 310 639 m -27 X s 310 658 m -27 X s 310 674 m -27 X s 310 688 m -27 X s 310 701 m -27 X s
 337 712 m -54 X s
 gsave  2268 1537 0 0 C 240.417 718.002 t 0 r /Helvetica-Bold findfont 38.9865 sf 0 0 m (3) show NC gr 
 gsave  2268 1537 0 0 C 175.439 685.513 t 0 r /Helvetica-Bold findfont 58.4798 sf 0 0 m (10) show NC gr  310 785 m -27 X s 310 828 m -27 X s 310 859 m -27 X s 310 882 m -27 X s 310 902 m -27 X s 310 918 m -27 X s 310 932 m -27 X s 310 944 m -27 X s
 337 956 m -54 X s
 gsave  2268 1537 0 0 C 240.417 958.419 t 0 r /Helvetica-Bold findfont 38.9865 sf 0 0 m (4) show NC gr 
 gsave  2268 1537 0 0 C 175.439 929.179 t 0 r /Helvetica-Bold findfont 58.4798 sf 0 0 m (10) show NC gr  310 1029 m -27 X s 310 1072 m -27 X s 310 1102 m -27 X s 310 1126 m -27 X s 310 1145 m -27 X s 310 1161 m -27 X s 310 1176 m -27 X s 310 1188 m
 -27 X s 337 1199 m -54 X s
 gsave  2268 1537 0 0 C 240.417 1205.33 t 0 r /Helvetica-Bold findfont 38.9865 sf 0 0 m (5) show NC gr 
 gsave  2268 1537 0 0 C 175.439 1172.84 t 0 r /Helvetica-Bold findfont 58.4798 sf 0 0 m (10) show NC gr  310 1273 m -27 X s 310 1315 m -27 X s 310 1346 m -27 X s 310 1370 m -27 X s 310 1389 m -27 X s 310 1405 m -27 X s 310 1419 m -27 X s 310 1432 m
 -27 X s 337 1443 m -54 X s
 gsave  2268 1537 0 0 C 240.417 1449 t 0 r /Helvetica-Bold findfont 38.9865 sf 0 0 m (6) show NC gr 
 gsave  2268 1537 0 0 C 175.439 1416.51 t 0 r /Helvetica-Bold findfont 58.4798 sf 0 0 m (10) show NC gr  1 0 0 c 6 lw 1 1 1 c black 1 0 0 c 283 953 m 18 X -138 Y 18 X -63 Y 18 X -40 Y 18 X -30 Y 18 X -20 Y 19 X -22 Y 18 X -17 Y 18 X -17 Y 18 X -12 Y
 18 X -14 Y 18 X -14 Y 19 X -14 Y 18 X -7 Y 18 X -9 Y 18 X -14 Y 18 X -7 Y 18 X -12 Y 19 X -7 Y 18 X -8 Y 18 X -15 Y 18 X -3 Y 18 X -10 Y 18 X -10 Y 19 X -6 Y 18 X -9 Y 18 X -5 Y 18 X -9 Y 18 X -8 Y 18 X -9 Y 18 X -6 Y 37 X -16 Y 18 X -4 Y 18 X -5 Y
 18 X -12 Y 18 X 1 Y 19 X -12 Y 18 X -9 Y 18 X -5 Y 18 X -4 Y 18 X -9 Y 18 X 3 Y 19 X -12 Y 18 X -13 Y 18 X -1 Y 36 X -10 Y 18 X -7 Y 19 X -1 Y 18 X -10 Y 36 X -7 Y 18 X -13 Y 18 X 2 Y 19 X -11 Y 18 X -16 Y 18 X 16 Y 18 X -16 Y 18 X -6 Y 55 X 1 Y 18
 X -1 Y 672 X s black 3 lw 1 1 1 c 881 189 1179 1127 bf black 1179 1127 m 881 X s 2060 1127 m 189 Y s 2060 1316 m -881 X s 1179 1316 m -189 Y s
 gsave  2268 1537 0 0 C 1881.1 1247.57 t 0 r /Helvetica findfont 77.9731 sf 0 0 m (tica) show NC gr 
 gsave  2268 1537 0 0 C 1838.86 1247.57 t 0 r /Helvetica findfont 77.9731 sf 0 0 m (e) show NC gr  6 lw 1858 1287 m 20 13 d s
 gsave  2268 1537 0 0 C 1442.5 1247.57 t 0 r /Helvetica findfont 77.9731 sf 0 0 m (Eletromagn) show NC gr  1 1 1 c 3 lw 1219 1236 m 185 X 66 Y -185 X f 6 lw 0 0 0.6 c 1219 1269 m 185 X s black 3 lw /w 2 def /w2 {w 2 div} def /w3 {w 3 div} def 1311
 1269 m20 6 lw
 gsave  2268 1537 0 0 C 1588.7 1153.35 t 0 r /Helvetica findfont 77.9731 sf 0 0 m (nica) show NC gr 
 gsave  2268 1537 0 0 C 1546.47 1153.35 t 0 r /Helvetica findfont 77.9731 sf 0 0 m (o) show NC gr  1553 1209 m 13 13 d s 1566 1222 m 13 -13 d s
 gsave  2268 1537 0 0 C 1442.5 1153.35 t 0 r /Helvetica findfont 77.9731 sf 0 0 m (Mu) show NC gr  1 1 1 c 3 lw 1219 1141 m 185 X 66 Y -185 X f 6 lw 1 0 0 c 1219 1174 m 185 X s black 3 lw 1311 1174 m20 6 lw
 gr  gr showpage
end
%%EOF
